{
  "projects": [
    {
      "defAutomatic": true,
      "defPrepare": false,
      "description": "",
      "difficulty": 3,
      "ec": "30 seconds each exercise",
      "focus": 4,
      "initPrep": true,
      "map": "",
      "name": "30 seconds",
      "pdf": "",
      "sets": 1,
      "timers": [
        {
          "automatic": true,
          "countdownValue": 30,
          "name": "go",
          "prepare": false
        }
      ],
      "tools": 0,
      "type": 0,
      "url": ""
    },
    {
      "defAutomatic": true,
      "defPrepare": false,
      "description": "",
      "difficulty": 0,
      "ec": "",
      "focus": 0,
      "initPrep": true,
      "map": "",
      "name": "30 seconds (15+15)",
      "pdf": "",
      "sets": 1,
      "timers": [
        {
          "automatic": true,
          "countdownValue": 15,
          "name": "go",
          "prepare": false
        },
        {
          "automatic": true,
          "countdownValue": 15,
          "name": "go",
          "prepare": false
        }
      ],
      "tools": 0,
      "type": 0,
      "url": ""
    },
    {
      "defAutomatic": true,
      "defPrepare": false,
      "description": "",
      "difficulty": 0,
      "ec": "",
      "focus": 0,
      "initPrep": true,
      "map": "",
      "name": "1 minute",
      "pdf": "",
      "sets": 1,
      "timers": [
        {
          "automatic": true,
          "countdownValue": 60,
          "name": "go",
          "prepare": false
        }
      ],
      "tools": 0,
      "type": 0,
      "url": ""
    },
    {
      "defAutomatic": true,
      "defPrepare": false,
      "description": "",
      "difficulty": 0,
      "ec": "",
      "focus": 0,
      "initPrep": true,
      "map": "",
      "name": "1 minute (30+30)",
      "pdf": "",
      "sets": 1,
      "timers": [
        {
          "automatic": true,
          "countdownValue": 30,
          "name": "go",
          "prepare": false
        },
        {
          "automatic": true,
          "countdownValue": 30,
          "name": "go",
          "prepare": false
        }
      ],
      "tools": 0,
      "type": 0,
      "url": ""
    },
    {
      "defAutomatic": true,
      "defPrepare": false,
      "description": "",
      "difficulty": 0,
      "ec": "",
      "focus": 0,
      "initPrep": true,
      "map": "",
      "name": "2 minutes",
      "pdf": "",
      "sets": 1,
      "timers": [
        {
          "automatic": true,
          "countdownValue": 120,
          "name": "go",
          "prepare": false
        }
      ],
      "tools": 0,
      "type": 0,
      "url": ""
    },
    {
      "defAutomatic": true,
      "defPrepare": false,
      "description": "",
      "difficulty": 0,
      "ec": "",
      "focus": 0,
      "initPrep": true,
      "map": "",
      "name": "2 minutes (60+60)",
      "pdf": "",
      "sets": 1,
      "timers": [
        {
          "automatic": true,
          "countdownValue": 60,
          "name": "go",
          "prepare": false
        },
        {
          "automatic": true,
          "countdownValue": 60,
          "name": "go",
          "prepare": false
        }
      ],
      "tools": 0,
      "type": 0,
      "url": ""
    },
    {
      "defAutomatic": true,
      "defPrepare": false,
      "description": "",
      "difficulty": 0,
      "ec": "",
      "focus": 0,
      "initPrep": true,
      "map": "",
      "name": "3 minutes",
      "pdf": "",
      "sets": 1,
      "timers": [
        {
          "automatic": true,
          "countdownValue": 180,
          "name": "go",
          "prepare": false
        }
      ],
      "tools": 0,
      "type": 0,
      "url": ""
    },
    {
      "defAutomatic": true,
      "defPrepare": false,
      "description": "",
      "difficulty": 4,
      "ec": "30 seconds rest between sets.",
      "focus": 3,
      "initPrep": true,
      "map": "",
      "name": "3 minutes (90+90)",
      "pdf": "",
      "sets": 1,
      "timers": [
        {
          "automatic": true,
          "countdownValue": 90,
          "name": "go",
          "prepare": false
        },
        {
          "automatic": true,
          "countdownValue": 90,
          "name": "go",
          "prepare": false
        }
      ],
      "tools": 1,
      "type": 2,
      "url": "https://darebee.com/workouts/airborne-workout.html"
    },
    {
      "defAutomatic": true,
      "defPrepare": false,
      "description": "",
      "difficulty": 0,
      "ec": "",
      "focus": 0,
      "initPrep": true,
      "map": "",
      "name": "5 minutes",
      "pdf": "",
      "sets": 1,
      "timers": [
        {
          "automatic": true,
          "countdownValue": 300,
          "name": "go",
          "prepare": false
        }
      ],
      "tools": 0,
      "type": 0,
      "url": ""
    },
    {
      "defAutomatic": true,
      "defPrepare": false,
      "description": "",
      "difficulty": 0,
      "ec": "",
      "focus": 0,
      "initPrep": false,
      "map": "",
      "name": "Progression",
      "pdf": "",
      "sets": 8,
      "timers": [
        {
          "automatic": true,
          "countdownValue": 15,
          "name": "get ready",
          "prepare": false
        },
        {
          "automatic": true,
          "countdownValue": 13,
          "name": "hold",
          "prepare": false
        },
        {
          "automatic": true,
          "countdownValue": 165,
          "name": "rest",
          "prepare": false
        }
      ],
      "tools": 0,
      "type": 0,
      "url": ""
    },
    {
      "defAutomatic": true,
      "defPrepare": false,
      "description": "",
      "difficulty": 0,
      "ec": "",
      "focus": 0,
      "initPrep": false,
      "map": "",
      "name": "Progression - half",
      "pdf": "",
      "sets": 5,
      "timers": [
        {
          "automatic": true,
          "countdownValue": 15,
          "name": "get ready",
          "prepare": false
        },
        {
          "automatic": true,
          "countdownValue": 6,
          "name": "hold",
          "prepare": false
        },
        {
          "automatic": true,
          "countdownValue": 165,
          "name": "rest",
          "prepare": false
        }
      ],
      "tools": 0,
      "type": 0,
      "url": ""
    },
    {
      "defAutomatic": true,
      "defPrepare": false,
      "description": "",
      "difficulty": 0,
      "ec": "",
      "focus": 0,
      "initPrep": true,
      "map": "",
      "name": "30s x 6",
      "pdf": "",
      "sets": 1,
      "timers": [
        {
          "automatic": true,
          "countdownValue": 30,
          "name": "1",
          "prepare": false
        },
        {
          "automatic": true,
          "countdownValue": 30,
          "name": "2",
          "prepare": false
        },
        {
          "automatic": true,
          "countdownValue": 30,
          "name": "3",
          "prepare": false
        },
        {
          "automatic": true,
          "countdownValue": 30,
          "name": "4",
          "prepare": false
        },
        {
          "automatic": true,
          "countdownValue": 30,
          "name": "5",
          "prepare": false
        },
        {
          "automatic": true,
          "countdownValue": 30,
          "name": "6",
          "prepare": false
        }
      ],
      "tools": 0,
      "type": 0,
      "url": ""
    },
    {
      "defAutomatic": true,
      "defPrepare": false,
      "description": "",
      "difficulty": 0,
      "ec": "",
      "focus": 0,
      "initPrep": false,
      "map": "",
      "name": "20s x 6 - 5 sets",
      "pdf": "",
      "sets": 5,
      "timers": [
        {
          "automatic": true,
          "countdownValue": 20,
          "name": "1",
          "prepare": false
        },
        {
          "automatic": true,
          "countdownValue": 20,
          "name": "2",
          "prepare": false
        },
        {
          "automatic": true,
          "countdownValue": 20,
          "name": "3",
          "prepare": false
        },
        {
          "automatic": true,
          "countdownValue": 20,
          "name": "4",
          "prepare": false
        },
        {
          "automatic": true,
          "countdownValue": 20,
          "name": "5",
          "prepare": false
        },
        {
          "automatic": true,
          "countdownValue": 20,
          "name": "6",
          "prepare": false
        }
      ],
      "tools": 0,
      "type": 0,
      "url": ""
    },
    {
      "defAutomatic": true,
      "defPrepare": false,
      "description": "",
      "difficulty": 0,
      "ec": "",
      "focus": 0,
      "initPrep": false,
      "map": "",
      "name": "Keyboard Warrior",
      "pdf": "",
      "sets": 1,
      "timers": [
        {
          "automatic": true,
          "countdownValue": 10,
          "name": "1",
          "prepare": false
        },
        {
          "automatic": true,
          "countdownValue": 10,
          "name": "2",
          "prepare": false
        },
        {
          "automatic": true,
          "countdownValue": 10,
          "name": "3",
          "prepare": false
        },
        {
          "automatic": true,
          "countdownValue": 10,
          "name": "4",
          "prepare": false
        }
      ],
      "tools": 0,
      "type": 0,
      "url": ""
    },
    {
      "defAutomatic": true,
      "defPrepare": false,
      "description": "",
      "difficulty": 0,
      "ec": "",
      "focus": 0,
      "initPrep": true,
      "map": "",
      "name": "Pressure Points",
      "pdf": "",
      "sets": 2,
      "timers": [
        {
          "automatic": true,
          "countdownValue": 10,
          "name": "thenar press",
          "prepare": false
        },
        {
          "automatic": true,
          "countdownValue": 10,
          "name": "palm rub",
          "prepare": false
        },
        {
          "automatic": true,
          "countdownValue": 10,
          "name": "thumb root press",
          "prepare": false
        },
        {
          "automatic": true,
          "countdownValue": 10,
          "name": "bottom index finger press",
          "prepare": false
        },
        {
          "automatic": true,
          "countdownValue": 10,
          "name": "top little finger press",
          "prepare": false
        },
        {
          "automatic": true,
          "countdownValue": 10,
          "name": "top thumb press",
          "prepare": false
        }
      ],
      "tools": 0,
      "type": 0,
      "url": ""
    },
    {
      "defAutomatic": false,
      "defPrepare": true,
      "description": "",
      "difficulty": 0,
      "ec": "",
      "focus": 0,
      "initPrep": false,
      "map": "",
      "name": "Planche Prep + EC",
      "pdf": "",
      "sets": 1,
      "timers": [
        {
          "automatic": false,
          "countdownValue": 60,
          "name": "plank WO rest 1",
          "prepare": true
        },
        {
          "automatic": false,
          "countdownValue": 60,
          "name": "plank WO rest 2",
          "prepare": true
        },
        {
          "automatic": false,
          "countdownValue": 60,
          "name": "plank WO rest 3",
          "prepare": true
        },
        {
          "automatic": false,
          "countdownValue": 60,
          "name": "plank WO rest 4",
          "prepare": true
        },
        {
          "automatic": true,
          "countdownValue": 10,
          "name": "leaning plank 1",
          "prepare": false
        },
        {
          "automatic": true,
          "countdownValue": 60,
          "name": "leaning plank 1 rest",
          "prepare": true
        },
        {
          "automatic": true,
          "countdownValue": 10,
          "name": "leaning plank 2",
          "prepare": false
        },
        {
          "automatic": true,
          "countdownValue": 60,
          "name": "leaning plank 2 rest",
          "prepare": true
        },
        {
          "automatic": true,
          "countdownValue": 10,
          "name": "leaning plank 3",
          "prepare": false
        },
        {
          "automatic": true,
          "countdownValue": 60,
          "name": "leaning plank 3 rest",
          "prepare": true
        },
        {
          "automatic": true,
          "countdownValue": 10,
          "name": "leaning plank 4",
          "prepare": false
        },
        {
          "automatic": true,
          "countdownValue": 60,
          "name": "leaning plank 4 rest",
          "prepare": true
        },
        {
          "automatic": true,
          "countdownValue": 10,
          "name": "LP leg raised 1 side 1",
          "prepare": false
        },
        {
          "automatic": true,
          "countdownValue": 10,
          "name": "LP leg raised 1 side2",
          "prepare": false
        },
        {
          "automatic": true,
          "countdownValue": 60,
          "name": "LP leg raised 1 rest",
          "prepare": true
        },
        {
          "automatic": true,
          "countdownValue": 10,
          "name": "LP leg raised 2 side 1",
          "prepare": false
        },
        {
          "automatic": true,
          "countdownValue": 10,
          "name": "LP leg raised 2 side 2",
          "prepare": false
        },
        {
          "automatic": true,
          "countdownValue": 60,
          "name": "LP leg raised 2 rest",
          "prepare": true
        },
        {
          "automatic": true,
          "countdownValue": 10,
          "name": "LP leg raised 3 side 1",
          "prepare": false
        },
        {
          "automatic": true,
          "countdownValue": 10,
          "name": "LP leg raised 3 side 2",
          "prepare": false
        },
        {
          "automatic": true,
          "countdownValue": 60,
          "name": "LP leg raised 3 rest",
          "prepare": true
        },
        {
          "automatic": true,
          "countdownValue": 10,
          "name": "LP leg raised 4 side 1",
          "prepare": false
        },
        {
          "automatic": true,
          "countdownValue": 10,
          "name": "LP leg raised 4 side 2",
          "prepare": false
        },
        {
          "automatic": true,
          "countdownValue": 60,
          "name": "LP leg raised 4 rest",
          "prepare": true
        },
        {
          "automatic": false,
          "countdownValue": 60,
          "name": "crane pose lift rest 1",
          "prepare": true
        },
        {
          "automatic": false,
          "countdownValue": 60,
          "name": "crane pose lift rest 2",
          "prepare": true
        },
        {
          "automatic": false,
          "countdownValue": 60,
          "name": "crane pose lift rest 3",
          "prepare": true
        },
        {
          "automatic": false,
          "countdownValue": 60,
          "name": "crane pose lift rest 4",
          "prepare": true
        },
        {
          "automatic": false,
          "countdownValue": 60,
          "name": "L-sit rest 1",
          "prepare": true
        },
        {
          "automatic": false,
          "countdownValue": 60,
          "name": "L-sit rest 2",
          "prepare": true
        },
        {
          "automatic": false,
          "countdownValue": 60,
          "name": "L-sit rest 3",
          "prepare": true
        },
        {
          "automatic": false,
          "countdownValue": 45,
          "name": "L-sit rest 4",
          "prepare": false
        },
        {
          "automatic": true,
          "countdownValue": 15,
          "name": "get ready for EC",
          "prepare": false
        },
        {
          "automatic": true,
          "countdownValue": 21,
          "name": "hold planche",
          "prepare": false
        }
      ],
      "tools": 0,
      "type": 0,
      "url": ""
    },
    {
      "defAutomatic": true,
      "defPrepare": false,
      "description": "",
      "difficulty": 0,
      "ec": "",
      "focus": 0,
      "initPrep": true,
      "map": "",
      "name": "V-Cut - L1",
      "pdf": "",
      "sets": 1,
      "timers": [
        {
          "automatic": true,
          "countdownValue": 20,
          "name": "boat pose hold",
          "prepare": false
        },
        {
          "automatic": true,
          "countdownValue": 20,
          "name": "leg raises 90°",
          "prepare": false
        },
        {
          "automatic": true,
          "countdownValue": 20,
          "name": "boat pose hold",
          "prepare": false
        },
        {
          "automatic": true,
          "countdownValue": 20,
          "name": "boat hold flutter kicks (slow)",
          "prepare": false
        },
        {
          "automatic": true,
          "countdownValue": 20,
          "name": "raised legs spread",
          "prepare": false
        },
        {
          "automatic": true,
          "countdownValue": 20,
          "name": "leg raises 90° + wide spread",
          "prepare": false
        }
      ],
      "tools": 0,
      "type": 0,
      "url": ""
    },
    {
      "defAutomatic": true,
      "defPrepare": false,
      "description": "",
      "difficulty": 0,
      "ec": "",
      "focus": 0,
      "initPrep": true,
      "map": "",
      "name": "V-Cut - L3",
      "pdf": "",
      "sets": 1,
      "timers": [
        {
          "automatic": true,
          "countdownValue": 60,
          "name": "boat pose hold",
          "prepare": false
        },
        {
          "automatic": true,
          "countdownValue": 60,
          "name": "leg raises 90°",
          "prepare": false
        },
        {
          "automatic": true,
          "countdownValue": 60,
          "name": "boat pose hold",
          "prepare": false
        },
        {
          "automatic": true,
          "countdownValue": 60,
          "name": "boat hold flutter kicks (slow)",
          "prepare": false
        },
        {
          "automatic": true,
          "countdownValue": 60,
          "name": "raised legs spread",
          "prepare": false
        },
        {
          "automatic": true,
          "countdownValue": 60,
          "name": "leg raises 90° + wide spread",
          "prepare": false
        }
      ],
      "tools": 0,
      "type": 0,
      "url": ""
    },
    {
      "defAutomatic": true,
      "defPrepare": false,
      "description": "",
      "difficulty": 0,
      "ec": "",
      "focus": 0,
      "initPrep": true,
      "map": "",
      "name": "2 Minute Plank",
      "pdf": "",
      "sets": 1,
      "timers": [
        {
          "automatic": true,
          "countdownValue": 20,
          "name": "full plank",
          "prepare": false
        },
        {
          "automatic": true,
          "countdownValue": 20,
          "name": "elbow plank",
          "prepare": false
        },
        {
          "automatic": true,
          "countdownValue": 10,
          "name": "raised leg elbow plank side 1",
          "prepare": false
        },
        {
          "automatic": true,
          "countdownValue": 10,
          "name": "raised leg elbow plank side 2",
          "prepare": false
        },
        {
          "automatic": true,
          "countdownValue": 10,
          "name": "side elbow plank side 1",
          "prepare": false
        },
        {
          "automatic": true,
          "countdownValue": 10,
          "name": "side elbow plank side 2",
          "prepare": false
        },
        {
          "automatic": true,
          "countdownValue": 20,
          "name": "full plank",
          "prepare": false
        },
        {
          "automatic": true,
          "countdownValue": 20,
          "name": "elbow plank",
          "prepare": false
        }
      ],
      "tools": 0,
      "type": 0,
      "url": ""
    },
    {
      "defAutomatic": true,
      "defPrepare": false,
      "description": "",
      "difficulty": 0,
      "ec": "",
      "focus": 0,
      "initPrep": true,
      "map": "",
      "name": "Upperbody Tendon Strength",
      "pdf": "",
      "sets": 1,
      "timers": [
        {
          "automatic": true,
          "countdownValue": 30,
          "name": "clench/unclench overhead",
          "prepare": false
        },
        {
          "automatic": true,
          "countdownValue": 60,
          "name": "clench/unclench side raised arms",
          "prepare": false
        },
        {
          "automatic": true,
          "countdownValue": 30,
          "name": "clench/unclench overhead",
          "prepare": false
        },
        {
          "automatic": true,
          "countdownValue": 30,
          "name": "side raised arms circle",
          "prepare": false
        },
        {
          "automatic": true,
          "countdownValue": 60,
          "name": "side raised arms hold",
          "prepare": false
        },
        {
          "automatic": true,
          "countdownValue": 30,
          "name": "clench/unclench overhead",
          "prepare": false
        },
        {
          "automatic": true,
          "countdownValue": 30,
          "name": "bicep extensions",
          "prepare": false
        },
        {
          "automatic": true,
          "countdownValue": 60,
          "name": "bicep extended hold",
          "prepare": false
        },
        {
          "automatic": true,
          "countdownValue": 30,
          "name": "bicep extensions",
          "prepare": false
        }
      ],
      "tools": 0,
      "type": 0,
      "url": ""
    },
    {
      "defAutomatic": true,
      "defPrepare": false,
      "description": "",
      "difficulty": 0,
      "ec": "",
      "focus": 0,
      "initPrep": true,
      "map": "",
      "name": "Upperbody Tendon Strength +",
      "pdf": "",
      "sets": 1,
      "timers": [
        {
          "automatic": true,
          "countdownValue": 30,
          "name": "dumbbell hold right arm",
          "prepare": false
        },
        {
          "automatic": true,
          "countdownValue": 10,
          "name": "punches slow motion",
          "prepare": false
        },
        {
          "automatic": true,
          "countdownValue": 30,
          "name": "dumbbell hold left arm",
          "prepare": false
        },
        {
          "automatic": true,
          "countdownValue": 30,
          "name": "bicep curls slow motion",
          "prepare": false
        },
        {
          "automatic": true,
          "countdownValue": 10,
          "name": "side raised arms hold",
          "prepare": false
        },
        {
          "automatic": true,
          "countdownValue": 30,
          "name": "bicep curls slow motion",
          "prepare": false
        }
      ],
      "tools": 0,
      "type": 0,
      "url": ""
    },
    {
      "defAutomatic": true,
      "defPrepare": false,
      "description": "",
      "difficulty": 0,
      "ec": "",
      "focus": 0,
      "initPrep": true,
      "map": "",
      "name": "Boxer Tendon Strength",
      "pdf": "",
      "sets": 1,
      "timers": [
        {
          "automatic": true,
          "countdownValue": 10,
          "name": "slow motion push-ups",
          "prepare": false
        },
        {
          "automatic": true,
          "countdownValue": 10,
          "name": "push-up plank hold",
          "prepare": false
        },
        {
          "automatic": true,
          "countdownValue": 10,
          "name": "slow motion come up",
          "prepare": false
        },
        {
          "automatic": true,
          "countdownValue": 30,
          "name": "jabs left arm, tensed, slow motion",
          "prepare": false
        },
        {
          "automatic": true,
          "countdownValue": 30,
          "name": "jabs right arm, tensed, slow motion",
          "prepare": false
        },
        {
          "automatic": true,
          "countdownValue": 30,
          "name": "speed bag punches",
          "prepare": false
        },
        {
          "automatic": true,
          "countdownValue": 30,
          "name": "overhead hold, tensed",
          "prepare": false
        },
        {
          "automatic": true,
          "countdownValue": 30,
          "name": "punches, tensed, slow motion",
          "prepare": false
        }
      ],
      "tools": 0,
      "type": 0,
      "url": ""
    },
    {
      "defAutomatic": true,
      "defPrepare": false,
      "description": "",
      "difficulty": 0,
      "ec": "",
      "focus": 0,
      "initPrep": true,
      "map": "",
      "name": "Lowerbody Tendon Strength",
      "pdf": "",
      "sets": 1,
      "timers": [
        {
          "automatic": true,
          "countdownValue": 20,
          "name": "leg extensions",
          "prepare": false
        },
        {
          "automatic": true,
          "countdownValue": 20,
          "name": "raised leg swings",
          "prepare": false
        },
        {
          "automatic": true,
          "countdownValue": 20,
          "name": "raised leg hold",
          "prepare": false
        },
        {
          "automatic": true,
          "countdownValue": 20,
          "name": "leg extensions",
          "prepare": false
        },
        {
          "automatic": true,
          "countdownValue": 20,
          "name": "raised leg swings",
          "prepare": false
        },
        {
          "automatic": true,
          "countdownValue": 20,
          "name": "raised leg hold",
          "prepare": false
        },
        {
          "automatic": true,
          "countdownValue": 20,
          "name": "leg raises",
          "prepare": false
        },
        {
          "automatic": true,
          "countdownValue": 20,
          "name": "raised leg circles",
          "prepare": false
        },
        {
          "automatic": true,
          "countdownValue": 20,
          "name": "raised leg hold",
          "prepare": false
        },
        {
          "automatic": true,
          "countdownValue": 20,
          "name": "leg raises",
          "prepare": false
        },
        {
          "automatic": true,
          "countdownValue": 20,
          "name": "raised leg circles",
          "prepare": false
        },
        {
          "automatic": true,
          "countdownValue": 20,
          "name": "raised leg hold",
          "prepare": false
        },
        {
          "automatic": true,
          "countdownValue": 20,
          "name": "side leg raises",
          "prepare": false
        },
        {
          "automatic": true,
          "countdownValue": 20,
          "name": "raised leg kicks",
          "prepare": false
        },
        {
          "automatic": true,
          "countdownValue": 20,
          "name": "side raised leg hold",
          "prepare": false
        },
        {
          "automatic": true,
          "countdownValue": 20,
          "name": "side leg raises",
          "prepare": false
        },
        {
          "automatic": true,
          "countdownValue": 20,
          "name": "raised leg kicks",
          "prepare": false
        },
        {
          "automatic": true,
          "countdownValue": 20,
          "name": "side raised leg hold",
          "prepare": false
        }
      ],
      "tools": 0,
      "type": 0,
      "url": ""
    },
    {
      "defAutomatic": true,
      "defPrepare": false,
      "description": "",
      "difficulty": 0,
      "ec": "",
      "focus": 0,
      "initPrep": true,
      "map": "",
      "name": "Iron Tendons Lowerbody",
      "pdf": "",
      "sets": 1,
      "timers": [
        {
          "automatic": true,
          "countdownValue": 10,
          "name": "side raised leg hold",
          "prepare": false
        },
        {
          "automatic": true,
          "countdownValue": 30,
          "name": "side leg raises",
          "prepare": false
        },
        {
          "automatic": true,
          "countdownValue": 10,
          "name": "side raised leg hold",
          "prepare": false
        },
        {
          "automatic": true,
          "countdownValue": 10,
          "name": "side raised leg hold",
          "prepare": false
        },
        {
          "automatic": true,
          "countdownValue": 30,
          "name": "side leg raises",
          "prepare": false
        },
        {
          "automatic": true,
          "countdownValue": 10,
          "name": "side raised leg hold",
          "prepare": false
        },
        {
          "automatic": true,
          "countdownValue": 10,
          "name": "raised leg hold",
          "prepare": false
        },
        {
          "automatic": true,
          "countdownValue": 30,
          "name": "leg raises",
          "prepare": false
        },
        {
          "automatic": true,
          "countdownValue": 10,
          "name": "raised leg hold",
          "prepare": false
        },
        {
          "automatic": true,
          "countdownValue": 10,
          "name": "raised leg hold",
          "prepare": false
        },
        {
          "automatic": true,
          "countdownValue": 30,
          "name": "leg raises",
          "prepare": false
        },
        {
          "automatic": true,
          "countdownValue": 10,
          "name": "raised leg hold",
          "prepare": false
        },
        {
          "automatic": true,
          "countdownValue": 10,
          "name": "lying side raised leg hold",
          "prepare": false
        },
        {
          "automatic": true,
          "countdownValue": 30,
          "name": "lying side leg raises",
          "prepare": false
        },
        {
          "automatic": true,
          "countdownValue": 10,
          "name": "lying side raised leg hold",
          "prepare": false
        },
        {
          "automatic": true,
          "countdownValue": 10,
          "name": "lying side raised leg hold",
          "prepare": false
        },
        {
          "automatic": true,
          "countdownValue": 30,
          "name": "lying side leg raises",
          "prepare": false
        },
        {
          "automatic": true,
          "countdownValue": 10,
          "name": "lying side raised leg hold",
          "prepare": false
        }
      ],
      "tools": 0,
      "type": 0,
      "url": ""
    },
    {
      "defAutomatic": true,
      "defPrepare": false,
      "description": "",
      "difficulty": 0,
      "ec": "",
      "focus": 0,
      "initPrep": true,
      "map": "",
      "name": "Tendon Strength Express",
      "pdf": "",
      "sets": 1,
      "timers": [
        {
          "automatic": true,
          "countdownValue": 30,
          "name": "raised leg hold",
          "prepare": false
        },
        {
          "automatic": true,
          "countdownValue": 30,
          "name": "leg raises",
          "prepare": false
        },
        {
          "automatic": true,
          "countdownValue": 30,
          "name": "raised leg hold",
          "prepare": false
        },
        {
          "automatic": true,
          "countdownValue": 30,
          "name": "raised leg hold",
          "prepare": false
        },
        {
          "automatic": true,
          "countdownValue": 30,
          "name": "leg raises",
          "prepare": false
        },
        {
          "automatic": true,
          "countdownValue": 30,
          "name": "raised leg hold",
          "prepare": false
        },
        {
          "automatic": true,
          "countdownValue": 30,
          "name": "side raised leg hold",
          "prepare": false
        },
        {
          "automatic": true,
          "countdownValue": 30,
          "name": "side leg raises",
          "prepare": false
        },
        {
          "automatic": true,
          "countdownValue": 30,
          "name": "side raised leg hold",
          "prepare": false
        },
        {
          "automatic": true,
          "countdownValue": 30,
          "name": "side raised leg hold",
          "prepare": false
        },
        {
          "automatic": true,
          "countdownValue": 30,
          "name": "side leg raises",
          "prepare": false
        },
        {
          "automatic": true,
          "countdownValue": 30,
          "name": "side raised leg hold",
          "prepare": false
        },
        {
          "automatic": true,
          "countdownValue": 60,
          "name": "side raised arm hold",
          "prepare": false
        },
        {
          "automatic": true,
          "countdownValue": 60,
          "name": "side raised arm circles",
          "prepare": false
        },
        {
          "automatic": true,
          "countdownValue": 60,
          "name": "side raised arm hold",
          "prepare": false
        }
      ],
      "tools": 0,
      "type": 0,
      "url": ""
    },
    {
      "defAutomatic": true,
      "defPrepare": false,
      "description": "",
      "difficulty": 0,
      "ec": "",
      "focus": 0,
      "initPrep": true,
      "map": "",
      "name": "Afterglow + EC",
      "pdf": "",
      "sets": 1,
      "timers": [
        {
          "automatic": true,
          "countdownValue": 60,
          "name": "1",
          "prepare": false
        },
        {
          "automatic": true,
          "countdownValue": 60,
          "name": "2",
          "prepare": false
        },
        {
          "automatic": true,
          "countdownValue": 60,
          "name": "3",
          "prepare": false
        },
        {
          "automatic": true,
          "countdownValue": 60,
          "name": "4",
          "prepare": false
        },
        {
          "automatic": true,
          "countdownValue": 60,
          "name": "5",
          "prepare": false
        },
        {
          "automatic": true,
          "countdownValue": 60,
          "name": "6",
          "prepare": false
        },
        {
          "automatic": true,
          "countdownValue": 60,
          "name": "7",
          "prepare": false
        },
        {
          "automatic": true,
          "countdownValue": 60,
          "name": "8",
          "prepare": false
        },
        {
          "automatic": true,
          "countdownValue": 60,
          "name": "9",
          "prepare": false
        }
      ],
      "tools": 0,
      "type": 0,
      "url": ""
    },
    {
      "defAutomatic": true,
      "defPrepare": false,
      "description": "",
      "difficulty": 0,
      "ec": "",
      "focus": 0,
      "initPrep": true,
      "map": "",
      "name": "Back Pain Relief",
      "pdf": "",
      "sets": 2,
      "timers": [
        {
          "automatic": true,
          "countdownValue": 30,
          "name": "forward bend",
          "prepare": false
        },
        {
          "automatic": true,
          "countdownValue": 30,
          "name": "warrior I",
          "prepare": false
        },
        {
          "automatic": true,
          "countdownValue": 30,
          "name": "warrior II",
          "prepare": false
        },
        {
          "automatic": true,
          "countdownValue": 30,
          "name": "triangle",
          "prepare": false
        },
        {
          "automatic": true,
          "countdownValue": 30,
          "name": "side stretch",
          "prepare": false
        },
        {
          "automatic": true,
          "countdownValue": 30,
          "name": "revolving triangle",
          "prepare": false
        },
        {
          "automatic": true,
          "countdownValue": 30,
          "name": "half moon",
          "prepare": false
        },
        {
          "automatic": true,
          "countdownValue": 30,
          "name": "warrior III",
          "prepare": false
        },
        {
          "automatic": true,
          "countdownValue": 30,
          "name": "extended big toe hold",
          "prepare": false
        }
      ],
      "tools": 0,
      "type": 0,
      "url": ""
    },
    {
      "defAutomatic": true,
      "defPrepare": false,
      "description": "",
      "difficulty": 0,
      "ec": "",
      "focus": 0,
      "initPrep": true,
      "map": "",
      "name": "Skyward + EC",
      "pdf": "",
      "sets": 2,
      "timers": [
        {
          "automatic": true,
          "countdownValue": 60,
          "name": "1",
          "prepare": false
        },
        {
          "automatic": true,
          "countdownValue": 60,
          "name": "2",
          "prepare": false
        },
        {
          "automatic": true,
          "countdownValue": 60,
          "name": "3",
          "prepare": false
        },
        {
          "automatic": true,
          "countdownValue": 60,
          "name": "4",
          "prepare": false
        },
        {
          "automatic": true,
          "countdownValue": 60,
          "name": "5",
          "prepare": false
        },
        {
          "automatic": true,
          "countdownValue": 60,
          "name": "6",
          "prepare": false
        },
        {
          "automatic": true,
          "countdownValue": 60,
          "name": "7",
          "prepare": false
        },
        {
          "automatic": true,
          "countdownValue": 60,
          "name": "8",
          "prepare": false
        },
        {
          "automatic": true,
          "countdownValue": 60,
          "name": "9",
          "prepare": false
        }
      ],
      "tools": 0,
      "type": 0,
      "url": ""
    },
    {
      "defAutomatic": false,
      "defPrepare": true,
      "description": "",
      "difficulty": 0,
      "ec": "",
      "focus": 0,
      "initPrep": false,
      "map": "",
      "name": "Push, Pull, Legs",
      "pdf": "",
      "sets": 5,
      "timers": [
        {
          "automatic": false,
          "countdownValue": 120,
          "name": "rest 1",
          "prepare": true
        },
        {
          "automatic": false,
          "countdownValue": 120,
          "name": "rest 2",
          "prepare": true
        },
        {
          "automatic": false,
          "countdownValue": 120,
          "name": "rest 3",
          "prepare": true
        },
        {
          "automatic": false,
          "countdownValue": 120,
          "name": "rest 4",
          "prepare": true
        }
      ],
      "tools": 0,
      "type": 0,
      "url": ""
    },
    {
      "defAutomatic": false,
      "defPrepare": true,
      "description": "",
      "difficulty": 0,
      "ec": "",
      "focus": 0,
      "initPrep": false,
      "map": "",
      "name": "Benched + EC",
      "pdf": "",
      "sets": 5,
      "timers": [
        {
          "automatic": false,
          "countdownValue": 20,
          "name": "rest 1",
          "prepare": true
        },
        {
          "automatic": false,
          "countdownValue": 20,
          "name": "rest 2",
          "prepare": true
        },
        {
          "automatic": false,
          "countdownValue": 20,
          "name": "rest 3",
          "prepare": true
        },
        {
          "automatic": false,
          "countdownValue": 60,
          "name": "rest 4",
          "prepare": true
        }
      ],
      "tools": 0,
      "type": 0,
      "url": ""
    },
    {
      "defAutomatic": false,
      "defPrepare": true,
      "description": "",
      "difficulty": 0,
      "ec": "",
      "focus": 0,
      "initPrep": false,
      "map": "",
      "name": "Big Back / Brute Arms & Back",
      "pdf": "",
      "sets": 6,
      "timers": [
        {
          "automatic": false,
          "countdownValue": 20,
          "name": "rest 1",
          "prepare": true
        },
        {
          "automatic": false,
          "countdownValue": 20,
          "name": "rest 2",
          "prepare": true
        },
        {
          "automatic": false,
          "countdownValue": 20,
          "name": "rest 3",
          "prepare": true
        },
        {
          "automatic": false,
          "countdownValue": 120,
          "name": "rest 4",
          "prepare": true
        }
      ],
      "tools": 0,
      "type": 0,
      "url": ""
    },
    {
      "defAutomatic": false,
      "defPrepare": true,
      "description": "",
      "difficulty": 3,
      "ec": "",
      "focus": 5,
      "initPrep": false,
      "map": "",
      "name": "Brute Leg Day",
      "pdf": "",
      "sets": 5,
      "timers": [
        {
          "automatic": false,
          "countdownValue": 20,
          "name": "squats rest 1",
          "prepare": true
        },
        {
          "automatic": false,
          "countdownValue": 20,
          "name": "squats rest 2",
          "prepare": true
        },
        {
          "automatic": false,
          "countdownValue": 20,
          "name": "squats rest 3",
          "prepare": true
        },
        {
          "automatic": false,
          "countdownValue": 120,
          "name": "squats rest 4",
          "prepare": true
        },
        {
          "automatic": false,
          "countdownValue": 20,
          "name": "lunges rest 1",
          "prepare": true
        },
        {
          "automatic": false,
          "countdownValue": 20,
          "name": "lunges rest 2",
          "prepare": true
        },
        {
          "automatic": false,
          "countdownValue": 20,
          "name": "lunges rest 3",
          "prepare": true
        },
        {
          "automatic": false,
          "countdownValue": 120,
          "name": "lunges rest 4",
          "prepare": true
        },
        {
          "automatic": false,
          "countdownValue": 20,
          "name": "side lunges rest 1",
          "prepare": true
        },
        {
          "automatic": false,
          "countdownValue": 20,
          "name": "side lunges rest 2",
          "prepare": true
        },
        {
          "automatic": false,
          "countdownValue": 20,
          "name": "side lunges rest 3",
          "prepare": true
        },
        {
          "automatic": false,
          "countdownValue": 120,
          "name": "side lunges rest 4",
          "prepare": true
        },
        {
          "automatic": false,
          "countdownValue": 20,
          "name": "calf raises rest 1",
          "prepare": true
        },
        {
          "automatic": false,
          "countdownValue": 20,
          "name": "calf raises rest 2",
          "prepare": true
        },
        {
          "automatic": false,
          "countdownValue": 120,
          "name": "calf raises rest 3",
          "prepare": true
        },
        {
          "automatic": false,
          "countdownValue": 20,
          "name": "single leg straight leg dead lifts rest 1",
          "prepare": true
        },
        {
          "automatic": false,
          "countdownValue": 20,
          "name": "single leg straight leg dead lifts rest 2",
          "prepare": true
        },
        {
          "automatic": false,
          "countdownValue": 20,
          "name": "single leg straight leg dead lifts rest 3",
          "prepare": true
        }
      ],
      "tools": 2,
      "type": 7,
      "url": ""
    },
    {
      "defAutomatic": false,
      "defPrepare": true,
      "description": "",
      "difficulty": 0,
      "ec": "",
      "focus": 0,
      "initPrep": false,
      "map": "",
      "name": "Bulk Order",
      "pdf": "",
      "sets": 5,
      "timers": [
        {
          "automatic": false,
          "countdownValue": 60,
          "name": "rest 1",
          "prepare": true
        },
        {
          "automatic": false,
          "countdownValue": 60,
          "name": "rest 2",
          "prepare": true
        },
        {
          "automatic": false,
          "countdownValue": 60,
          "name": "rest 3",
          "prepare": true
        },
        {
          "automatic": false,
          "countdownValue": 60,
          "name": "rest 4",
          "prepare": true
        },
        {
          "automatic": false,
          "countdownValue": 120,
          "name": "rest 5",
          "prepare": true
        }
      ],
      "tools": 0,
      "type": 0,
      "url": ""
    },
    {
      "defAutomatic": false,
      "defPrepare": true,
      "description": "",
      "difficulty": 0,
      "ec": "",
      "focus": 0,
      "initPrep": false,
      "map": "",
      "name": "Epic Gains",
      "pdf": "",
      "sets": 5,
      "timers": [
        {
          "automatic": false,
          "countdownValue": 60,
          "name": "rest 1",
          "prepare": true
        },
        {
          "automatic": false,
          "countdownValue": 60,
          "name": "rest 2",
          "prepare": true
        },
        {
          "automatic": false,
          "countdownValue": 60,
          "name": "rest 3",
          "prepare": true
        },
        {
          "automatic": false,
          "countdownValue": 60,
          "name": "rest 4",
          "prepare": true
        },
        {
          "automatic": false,
          "countdownValue": 60,
          "name": "rest 5",
          "prepare": true
        }
      ],
      "tools": 0,
      "type": 0,
      "url": ""
    },
    {
      "defAutomatic": false,
      "defPrepare": true,
      "description": "",
      "difficulty": 0,
      "ec": "",
      "focus": 0,
      "initPrep": false,
      "map": "",
      "name": "V-Taper",
      "pdf": "",
      "sets": 4,
      "timers": [
        {
          "automatic": false,
          "countdownValue": 20,
          "name": "rest 1",
          "prepare": true
        },
        {
          "automatic": false,
          "countdownValue": 20,
          "name": "rest 2",
          "prepare": true
        },
        {
          "automatic": false,
          "countdownValue": 20,
          "name": "rest 3",
          "prepare": true
        },
        {
          "automatic": false,
          "countdownValue": 20,
          "name": "rest 4",
          "prepare": true
        },
        {
          "automatic": false,
          "countdownValue": 120,
          "name": "rest 5",
          "prepare": true
        }
      ],
      "tools": 0,
      "type": 0,
      "url": ""
    },
    {
      "defAutomatic": true,
      "defPrepare": false,
      "description": "",
      "difficulty": 0,
      "ec": "",
      "focus": 0,
      "initPrep": true,
      "map": "",
      "name": "Defying Gravity - L3 + EC",
      "pdf": "",
      "sets": 5,
      "timers": [
        {
          "automatic": true,
          "countdownValue": 20,
          "name": "push-ups",
          "prepare": false
        },
        {
          "automatic": true,
          "countdownValue": 20,
          "name": "push-up plank hold",
          "prepare": false
        },
        {
          "automatic": true,
          "countdownValue": 20,
          "name": "push-ups",
          "prepare": false
        },
        {
          "automatic": true,
          "countdownValue": 20,
          "name": "plank hold",
          "prepare": false
        },
        {
          "automatic": true,
          "countdownValue": 20,
          "name": "skydiver push-ups",
          "prepare": false
        },
        {
          "automatic": true,
          "countdownValue": 20,
          "name": "push-ups",
          "prepare": false
        },
        {
          "automatic": true,
          "countdownValue": 60,
          "name": "rest",
          "prepare": true
        }
      ],
      "tools": 0,
      "type": 0,
      "url": ""
    },
    {
      "defAutomatic": false,
      "defPrepare": true,
      "description": "",
      "difficulty": 0,
      "ec": "",
      "focus": 0,
      "initPrep": false,
      "map": "",
      "name": "Goliath",
      "pdf": "",
      "sets": 4,
      "timers": [
        {
          "automatic": false,
          "countdownValue": 60,
          "name": "rest 1",
          "prepare": true
        },
        {
          "automatic": false,
          "countdownValue": 60,
          "name": "rest 2",
          "prepare": true
        },
        {
          "automatic": false,
          "countdownValue": 60,
          "name": "rest 3",
          "prepare": true
        },
        {
          "automatic": false,
          "countdownValue": 60,
          "name": "rest 4",
          "prepare": true
        },
        {
          "automatic": false,
          "countdownValue": 120,
          "name": "rest 5",
          "prepare": true
        }
      ],
      "tools": 0,
      "type": 0,
      "url": "https://darebee.com/workouts/goliath-workout"
    },
    {
      "defAutomatic": false,
      "defPrepare": true,
      "description": "",
      "difficulty": 0,
      "ec": "",
      "focus": 0,
      "initPrep": false,
      "map": "",
      "name": "Everybody Loves Large Chest",
      "pdf": "",
      "sets": 1,
      "timers": [
        {
          "automatic": false,
          "countdownValue": 30,
          "name": "chest rows rest 1",
          "prepare": true
        },
        {
          "automatic": false,
          "countdownValue": 30,
          "name": "chest rows rest 2",
          "prepare": true
        },
        {
          "automatic": false,
          "countdownValue": 30,
          "name": "chest rows rest 3",
          "prepare": true
        },
        {
          "automatic": false,
          "countdownValue": 30,
          "name": "chest rows rest 4",
          "prepare": true
        },
        {
          "automatic": false,
          "countdownValue": 30,
          "name": "chest rows rest 5",
          "prepare": true
        },
        {
          "automatic": false,
          "countdownValue": 30,
          "name": "bent over rows rest 1",
          "prepare": true
        },
        {
          "automatic": false,
          "countdownValue": 30,
          "name": "bent over rows rest 2",
          "prepare": true
        },
        {
          "automatic": false,
          "countdownValue": 30,
          "name": "bent over rows rest 3",
          "prepare": true
        },
        {
          "automatic": false,
          "countdownValue": 30,
          "name": "bent over rows rest 4",
          "prepare": true
        },
        {
          "automatic": false,
          "countdownValue": 30,
          "name": "bent over rows rest 5",
          "prepare": true
        },
        {
          "automatic": false,
          "countdownValue": 30,
          "name": "chest press rest 1",
          "prepare": true
        },
        {
          "automatic": false,
          "countdownValue": 30,
          "name": "chest press rest 2",
          "prepare": true
        },
        {
          "automatic": false,
          "countdownValue": 30,
          "name": "chest press rest 3",
          "prepare": true
        },
        {
          "automatic": false,
          "countdownValue": 30,
          "name": "chest press rest 4",
          "prepare": true
        },
        {
          "automatic": false,
          "countdownValue": 30,
          "name": "chest press rest 5",
          "prepare": true
        },
        {
          "automatic": false,
          "countdownValue": 30,
          "name": "flyes rest 1",
          "prepare": true
        },
        {
          "automatic": false,
          "countdownValue": 30,
          "name": "flyes rest 2",
          "prepare": true
        },
        {
          "automatic": false,
          "countdownValue": 30,
          "name": "flyes rest 3",
          "prepare": true
        },
        {
          "automatic": false,
          "countdownValue": 30,
          "name": "flyes rest 4",
          "prepare": true
        },
        {
          "automatic": false,
          "countdownValue": 30,
          "name": "flyes rest 5",
          "prepare": true
        },
        {
          "automatic": true,
          "countdownValue": 30,
          "name": "farmer's carry 1",
          "prepare": false
        },
        {
          "automatic": true,
          "countdownValue": 30,
          "name": "farmer's carry 1 rest",
          "prepare": true
        },
        {
          "automatic": true,
          "countdownValue": 30,
          "name": "farmer's carry 2",
          "prepare": false
        },
        {
          "automatic": true,
          "countdownValue": 30,
          "name": "farmer's carry 2 rest",
          "prepare": true
        },
        {
          "automatic": true,
          "countdownValue": 30,
          "name": "farmer's carry 3",
          "prepare": false
        },
        {
          "automatic": true,
          "countdownValue": 30,
          "name": "farmer's carry 3 rest",
          "prepare": true
        },
        {
          "automatic": true,
          "countdownValue": 30,
          "name": "farmer's carry 4",
          "prepare": false
        },
        {
          "automatic": true,
          "countdownValue": 30,
          "name": "farmer's carry 4 rest",
          "prepare": true
        },
        {
          "automatic": true,
          "countdownValue": 30,
          "name": "farmer's carry 5",
          "prepare": false
        }
      ],
      "tools": 0,
      "type": 0,
      "url": ""
    },
    {
      "defAutomatic": false,
      "defPrepare": true,
      "description": "",
      "difficulty": 0,
      "ec": "",
      "focus": 7,
      "initPrep": false,
      "map": "",
      "name": "Chest & Back",
      "pdf": "",
      "sets": 6,
      "timers": [
        {
          "automatic": false,
          "countdownValue": 30,
          "name": "rest 1",
          "prepare": true
        },
        {
          "automatic": false,
          "countdownValue": 30,
          "name": "rest 2",
          "prepare": true
        },
        {
          "automatic": false,
          "countdownValue": 30,
          "name": "rest 3",
          "prepare": true
        },
        {
          "automatic": false,
          "countdownValue": 60,
          "name": "rest 4",
          "prepare": true
        }
      ],
      "tools": 0,
      "type": 10,
      "url": "https://darebee.com/workouts/chest-and-back-workout.html"
    },
    {
      "defAutomatic": false,
      "defPrepare": true,
      "description": "",
      "difficulty": 0,
      "ec": "",
      "focus": 0,
      "initPrep": false,
      "map": "",
      "name": "Power 20",
      "pdf": "",
      "sets": 6,
      "timers": [
        {
          "automatic": false,
          "countdownValue": 20,
          "name": "rest 1",
          "prepare": true
        },
        {
          "automatic": false,
          "countdownValue": 20,
          "name": "rest 2",
          "prepare": true
        },
        {
          "automatic": false,
          "countdownValue": 120,
          "name": "rest 3",
          "prepare": true
        }
      ],
      "tools": 0,
      "type": 0,
      "url": ""
    },
    {
      "defAutomatic": false,
      "defPrepare": true,
      "description": "",
      "difficulty": 5,
      "ec": "Use 8kg+ (16lb+) dumbbells.",
      "focus": 6,
      "initPrep": false,
      "map": "",
      "name": "The Smiter",
      "pdf": "",
      "sets": 3,
      "timers": [
        {
          "automatic": false,
          "countdownValue": 120,
          "name": "rest 1",
          "prepare": true
        },
        {
          "automatic": false,
          "countdownValue": 120,
          "name": "rest 2",
          "prepare": true
        },
        {
          "automatic": false,
          "countdownValue": 120,
          "name": "rest 3",
          "prepare": true
        }
      ],
      "tools": 2,
      "type": 7,
      "url": "https://darebee.com/workouts/smiter-workout.html"
    },
    {
      "defAutomatic": false,
      "defPrepare": true,
      "description": "",
      "difficulty": 0,
      "ec": "",
      "focus": 0,
      "initPrep": false,
      "map": "",
      "name": "Muscle Factory Lowerbody",
      "pdf": "",
      "sets": 1,
      "timers": [
        {
          "automatic": false,
          "countdownValue": 30,
          "name": "side lunges rest 1",
          "prepare": true
        },
        {
          "automatic": false,
          "countdownValue": 30,
          "name": "side lunges rest 2",
          "prepare": true
        },
        {
          "automatic": false,
          "countdownValue": 30,
          "name": "side lunges rest 3",
          "prepare": true
        },
        {
          "automatic": false,
          "countdownValue": 30,
          "name": "side lunges rest 4",
          "prepare": true
        },
        {
          "automatic": false,
          "countdownValue": 120,
          "name": "side lunges rest 5",
          "prepare": true
        },
        {
          "automatic": false,
          "countdownValue": 30,
          "name": "lunges rest 1",
          "prepare": true
        },
        {
          "automatic": false,
          "countdownValue": 30,
          "name": "lunges rest 2",
          "prepare": true
        },
        {
          "automatic": false,
          "countdownValue": 30,
          "name": "lunges rest 3",
          "prepare": true
        },
        {
          "automatic": false,
          "countdownValue": 30,
          "name": "lunges rest 4",
          "prepare": true
        },
        {
          "automatic": false,
          "countdownValue": 120,
          "name": "lunges rest 5",
          "prepare": true
        },
        {
          "automatic": false,
          "countdownValue": 30,
          "name": "calf raises rest 1",
          "prepare": true
        },
        {
          "automatic": false,
          "countdownValue": 30,
          "name": "calf raises rest 2",
          "prepare": true
        },
        {
          "automatic": false,
          "countdownValue": 30,
          "name": "calf raises rest 3",
          "prepare": true
        },
        {
          "automatic": false,
          "countdownValue": 30,
          "name": "calf raises rest 4",
          "prepare": true
        },
        {
          "automatic": false,
          "countdownValue": 120,
          "name": "calf raises rest 5",
          "prepare": true
        },
        {
          "automatic": false,
          "countdownValue": 30,
          "name": "goblet squats rest 1",
          "prepare": true
        },
        {
          "automatic": false,
          "countdownValue": 30,
          "name": "goblet squats rest 2",
          "prepare": true
        },
        {
          "automatic": false,
          "countdownValue": 30,
          "name": "goblet squats rest 3",
          "prepare": true
        },
        {
          "automatic": false,
          "countdownValue": 30,
          "name": "goblet squats rest 4",
          "prepare": true
        },
        {
          "automatic": false,
          "countdownValue": 120,
          "name": "goblet squats rest 5",
          "prepare": true
        },
        {
          "automatic": false,
          "countdownValue": 30,
          "name": "single leg deadlifts rest 1",
          "prepare": true
        },
        {
          "automatic": false,
          "countdownValue": 30,
          "name": "single leg deadlifts rest 2",
          "prepare": true
        },
        {
          "automatic": false,
          "countdownValue": 30,
          "name": "single leg deadlifts rest 3",
          "prepare": true
        },
        {
          "automatic": false,
          "countdownValue": 30,
          "name": "single leg deadlifts rest 4",
          "prepare": true
        },
        {
          "automatic": false,
          "countdownValue": 120,
          "name": "single leg deadlifts rest 5",
          "prepare": true
        },
        {
          "automatic": true,
          "countdownValue": 120,
          "name": "wall-sit",
          "prepare": false
        }
      ],
      "tools": 0,
      "type": 0,
      "url": ""
    },
    {
      "defAutomatic": false,
      "defPrepare": true,
      "description": "",
      "difficulty": 0,
      "ec": "",
      "focus": 0,
      "initPrep": false,
      "map": "",
      "name": "Glutes Sculpt",
      "pdf": "",
      "sets": 4,
      "timers": [
        {
          "automatic": false,
          "countdownValue": 30,
          "name": "rest 1",
          "prepare": true
        },
        {
          "automatic": false,
          "countdownValue": 30,
          "name": "rest 2",
          "prepare": true
        },
        {
          "automatic": false,
          "countdownValue": 30,
          "name": "rest 3",
          "prepare": true
        },
        {
          "automatic": false,
          "countdownValue": 120,
          "name": "rest 4",
          "prepare": true
        }
      ],
      "tools": 0,
      "type": 0,
      "url": ""
    },
    {
      "defAutomatic": false,
      "defPrepare": true,
      "description": "",
      "difficulty": 0,
      "ec": "",
      "focus": 0,
      "initPrep": false,
      "map": "",
      "name": "Tyr",
      "pdf": "",
      "sets": 5,
      "timers": [
        {
          "automatic": false,
          "countdownValue": 30,
          "name": "rest 1",
          "prepare": true
        },
        {
          "automatic": false,
          "countdownValue": 30,
          "name": "rest 2",
          "prepare": true
        },
        {
          "automatic": false,
          "countdownValue": 30,
          "name": "rest 3",
          "prepare": true
        },
        {
          "automatic": false,
          "countdownValue": 30,
          "name": "rest 4",
          "prepare": true
        },
        {
          "automatic": false,
          "countdownValue": 120,
          "name": "rest 5",
          "prepare": true
        }
      ],
      "tools": 0,
      "type": 0,
      "url": ""
    },
    {
      "defAutomatic": false,
      "defPrepare": true,
      "description": "",
      "difficulty": 0,
      "ec": "",
      "focus": 0,
      "initPrep": false,
      "map": "",
      "name": "Bubble Butt + EC",
      "pdf": "",
      "sets": 4,
      "timers": [
        {
          "automatic": false,
          "countdownValue": 20,
          "name": "rest 1",
          "prepare": true
        },
        {
          "automatic": false,
          "countdownValue": 20,
          "name": "rest 2",
          "prepare": true
        },
        {
          "automatic": false,
          "countdownValue": 20,
          "name": "rest 3",
          "prepare": true
        }
      ],
      "tools": 0,
      "type": 0,
      "url": ""
    },
    {
      "defAutomatic": false,
      "defPrepare": true,
      "description": "",
      "difficulty": 0,
      "ec": "",
      "focus": 0,
      "initPrep": false,
      "map": "",
      "name": "Moster Legs + EC",
      "pdf": "",
      "sets": 1,
      "timers": [
        {
          "automatic": false,
          "countdownValue": 30,
          "name": "jump squats rest 1",
          "prepare": true
        },
        {
          "automatic": false,
          "countdownValue": 30,
          "name": "jump squats rest 2",
          "prepare": true
        },
        {
          "automatic": false,
          "countdownValue": 30,
          "name": "jump squats rest 3",
          "prepare": true
        },
        {
          "automatic": false,
          "countdownValue": 120,
          "name": "jump squats rest 4",
          "prepare": true
        },
        {
          "automatic": false,
          "countdownValue": 30,
          "name": "side kicks rest 1",
          "prepare": true
        },
        {
          "automatic": false,
          "countdownValue": 30,
          "name": "side kicks rest 2",
          "prepare": true
        },
        {
          "automatic": false,
          "countdownValue": 30,
          "name": "side kicks rest 3",
          "prepare": true
        },
        {
          "automatic": false,
          "countdownValue": 120,
          "name": "side kicks rest 4",
          "prepare": true
        },
        {
          "automatic": false,
          "countdownValue": 30,
          "name": "calf raises rest 1",
          "prepare": true
        },
        {
          "automatic": false,
          "countdownValue": 30,
          "name": "calf raises rest 2",
          "prepare": true
        },
        {
          "automatic": false,
          "countdownValue": 30,
          "name": "calf raises rest 3",
          "prepare": true
        },
        {
          "automatic": false,
          "countdownValue": 120,
          "name": "calf raises rest 4",
          "prepare": true
        },
        {
          "automatic": false,
          "countdownValue": 30,
          "name": "split lunges rest 1",
          "prepare": true
        },
        {
          "automatic": false,
          "countdownValue": 30,
          "name": "split lunges rest 2",
          "prepare": true
        },
        {
          "automatic": false,
          "countdownValue": 30,
          "name": "split lunges rest 3",
          "prepare": true
        },
        {
          "automatic": false,
          "countdownValue": 120,
          "name": "split lunges rest 4",
          "prepare": true
        },
        {
          "automatic": false,
          "countdownValue": 30,
          "name": "single leg bridges rest 1",
          "prepare": true
        },
        {
          "automatic": false,
          "countdownValue": 30,
          "name": "single leg bridges rest 2",
          "prepare": true
        },
        {
          "automatic": false,
          "countdownValue": 30,
          "name": "single leg bridges rest 3",
          "prepare": true
        },
        {
          "automatic": false,
          "countdownValue": 120,
          "name": "single leg bridges rest 4",
          "prepare": true
        },
        {
          "automatic": true,
          "countdownValue": 180,
          "name": "wall-sit",
          "prepare": false
        }
      ],
      "tools": 0,
      "type": 0,
      "url": ""
    },
    {
      "defAutomatic": true,
      "defPrepare": false,
      "description": "",
      "difficulty": 0,
      "ec": "",
      "focus": 0,
      "initPrep": true,
      "map": "",
      "name": "Better Core - balance swings",
      "pdf": "",
      "sets": 1,
      "timers": [
        {
          "automatic": true,
          "countdownValue": 30,
          "name": "balance swings - side 1",
          "prepare": false
        },
        {
          "automatic": true,
          "countdownValue": 30,
          "name": "balance swings - side 2",
          "prepare": false
        },
        {
          "automatic": true,
          "countdownValue": 30,
          "name": "rest",
          "prepare": true
        },
        {
          "automatic": true,
          "countdownValue": 30,
          "name": "balance swings - side 1",
          "prepare": false
        },
        {
          "automatic": true,
          "countdownValue": 30,
          "name": "balance swings - side 2",
          "prepare": false
        },
        {
          "automatic": true,
          "countdownValue": 30,
          "name": "rest",
          "prepare": true
        },
        {
          "automatic": true,
          "countdownValue": 30,
          "name": "balance swings - side 1",
          "prepare": false
        },
        {
          "automatic": true,
          "countdownValue": 30,
          "name": "balance swings - side 2",
          "prepare": false
        }
      ],
      "tools": 0,
      "type": 0,
      "url": ""
    },
    {
      "defAutomatic": false,
      "defPrepare": true,
      "description": "",
      "difficulty": 0,
      "ec": "",
      "focus": 0,
      "initPrep": false,
      "map": "",
      "name": "Maximum Mass",
      "pdf": "",
      "sets": 5,
      "timers": [
        {
          "automatic": false,
          "countdownValue": 30,
          "name": "rest 1",
          "prepare": true
        },
        {
          "automatic": false,
          "countdownValue": 30,
          "name": "rest 2",
          "prepare": true
        },
        {
          "automatic": false,
          "countdownValue": 30,
          "name": "rest 3",
          "prepare": true
        },
        {
          "automatic": false,
          "countdownValue": 30,
          "name": "rest 4",
          "prepare": true
        },
        {
          "automatic": false,
          "countdownValue": 30,
          "name": "rest 5",
          "prepare": true
        }
      ],
      "tools": 0,
      "type": 0,
      "url": ""
    },
    {
      "defAutomatic": false,
      "defPrepare": true,
      "description": "",
      "difficulty": 0,
      "ec": "",
      "focus": 0,
      "initPrep": false,
      "map": "",
      "name": "The Mammoth",
      "pdf": "",
      "sets": 6,
      "timers": [
        {
          "automatic": false,
          "countdownValue": 30,
          "name": "rest 1",
          "prepare": true
        },
        {
          "automatic": false,
          "countdownValue": 30,
          "name": "rest 2",
          "prepare": true
        },
        {
          "automatic": false,
          "countdownValue": 30,
          "name": "rest 3",
          "prepare": true
        },
        {
          "automatic": false,
          "countdownValue": 30,
          "name": "rest 4",
          "prepare": true
        },
        {
          "automatic": false,
          "countdownValue": 120,
          "name": "rest 5",
          "prepare": true
        }
      ],
      "tools": 0,
      "type": 0,
      "url": ""
    },
    {
      "defAutomatic": false,
      "defPrepare": true,
      "description": "",
      "difficulty": 0,
      "ec": "",
      "focus": 0,
      "initPrep": false,
      "map": "",
      "name": "Under Construction + EC",
      "pdf": "",
      "sets": 1,
      "timers": [
        {
          "automatic": false,
          "countdownValue": 30,
          "name": "bicep curl rest 1",
          "prepare": true
        },
        {
          "automatic": false,
          "countdownValue": 30,
          "name": "bicep curl rest 2",
          "prepare": true
        },
        {
          "automatic": false,
          "countdownValue": 30,
          "name": "bicep curl rest 3",
          "prepare": true
        },
        {
          "automatic": false,
          "countdownValue": 60,
          "name": "bicep curl rest 4",
          "prepare": true
        },
        {
          "automatic": false,
          "countdownValue": 30,
          "name": "squat into press rest 1",
          "prepare": true
        },
        {
          "automatic": false,
          "countdownValue": 30,
          "name": "squat into press rest 2",
          "prepare": true
        },
        {
          "automatic": false,
          "countdownValue": 30,
          "name": "squat into press rest 3",
          "prepare": true
        },
        {
          "automatic": false,
          "countdownValue": 60,
          "name": "squat into press rest 4",
          "prepare": true
        },
        {
          "automatic": false,
          "countdownValue": 30,
          "name": "tricep extensions rest 1",
          "prepare": true
        },
        {
          "automatic": false,
          "countdownValue": 30,
          "name": "tricep extensions rest 2",
          "prepare": true
        },
        {
          "automatic": false,
          "countdownValue": 30,
          "name": "tricep extensions rest 3",
          "prepare": true
        },
        {
          "automatic": false,
          "countdownValue": 60,
          "name": "tricep extensions rest 4",
          "prepare": true
        },
        {
          "automatic": false,
          "countdownValue": 30,
          "name": "push-up renegade rows rest 1",
          "prepare": true
        },
        {
          "automatic": false,
          "countdownValue": 30,
          "name": "push-up renegade rows rest 2",
          "prepare": true
        },
        {
          "automatic": false,
          "countdownValue": 30,
          "name": "push-up renegade rows rest 3",
          "prepare": true
        },
        {
          "automatic": false,
          "countdownValue": 60,
          "name": "push-up renegade rows rest 4",
          "prepare": true
        },
        {
          "automatic": true,
          "countdownValue": 30,
          "name": "plank hold",
          "prepare": false
        },
        {
          "automatic": true,
          "countdownValue": 30,
          "name": "plank hold rest 1",
          "prepare": true
        },
        {
          "automatic": true,
          "countdownValue": 30,
          "name": "plank hold",
          "prepare": false
        }
      ],
      "tools": 0,
      "type": 0,
      "url": ""
    },
    {
      "defAutomatic": false,
      "defPrepare": true,
      "description": "",
      "difficulty": 0,
      "ec": "",
      "focus": 0,
      "initPrep": false,
      "map": "",
      "name": "Hegemon",
      "pdf": "",
      "sets": 7,
      "timers": [
        {
          "automatic": false,
          "countdownValue": 30,
          "name": "rest 1",
          "prepare": true
        },
        {
          "automatic": false,
          "countdownValue": 30,
          "name": "rest 2",
          "prepare": true
        },
        {
          "automatic": false,
          "countdownValue": 30,
          "name": "rest 3",
          "prepare": true
        },
        {
          "automatic": false,
          "countdownValue": 30,
          "name": "rest 4",
          "prepare": true
        },
        {
          "automatic": false,
          "countdownValue": 30,
          "name": "rest 5",
          "prepare": true
        }
      ],
      "tools": 0,
      "type": 0,
      "url": ""
    },
    {
      "defAutomatic": false,
      "defPrepare": true,
      "description": "",
      "difficulty": 0,
      "ec": "",
      "focus": 0,
      "initPrep": false,
      "map": "",
      "name": "Strength Protocol - Day 19",
      "pdf": "",
      "sets": 1,
      "timers": [
        {
          "automatic": false,
          "countdownValue": 20,
          "name": "decline squats rest 1",
          "prepare": true
        },
        {
          "automatic": false,
          "countdownValue": 20,
          "name": "decline squats rest 2",
          "prepare": true
        },
        {
          "automatic": false,
          "countdownValue": 20,
          "name": "decline squats rest 3",
          "prepare": true
        },
        {
          "automatic": false,
          "countdownValue": 120,
          "name": "decline squats rest 4",
          "prepare": true
        },
        {
          "automatic": false,
          "countdownValue": 20,
          "name": "shrimp squats rest 1",
          "prepare": true
        },
        {
          "automatic": false,
          "countdownValue": 20,
          "name": "shrimp squats rest 2",
          "prepare": true
        },
        {
          "automatic": false,
          "countdownValue": 20,
          "name": "shrimp squats rest 3",
          "prepare": true
        },
        {
          "automatic": false,
          "countdownValue": 120,
          "name": "shrimp squats rest 4",
          "prepare": true
        },
        {
          "automatic": false,
          "countdownValue": 20,
          "name": "single leg bridges rest 1",
          "prepare": true
        },
        {
          "automatic": false,
          "countdownValue": 20,
          "name": "single leg bridges rest 2",
          "prepare": true
        },
        {
          "automatic": false,
          "countdownValue": 20,
          "name": "single leg bridges rest 3",
          "prepare": true
        },
        {
          "automatic": false,
          "countdownValue": 105,
          "name": "single leg bridges rest 4",
          "prepare": false
        },
        {
          "automatic": true,
          "countdownValue": 15,
          "name": "get ready for wall sit",
          "prepare": false
        },
        {
          "automatic": true,
          "countdownValue": 180,
          "name": "wall sit",
          "prepare": false
        }
      ],
      "tools": 0,
      "type": 0,
      "url": ""
    },
    {
      "defAutomatic": false,
      "defPrepare": true,
      "description": "",
      "difficulty": 0,
      "ec": "",
      "focus": 0,
      "initPrep": false,
      "map": "",
      "name": "Strength Protocol - Day 23",
      "pdf": "",
      "sets": 1,
      "timers": [
        {
          "automatic": false,
          "countdownValue": 20,
          "name": "half pistol squats rest 1",
          "prepare": true
        },
        {
          "automatic": false,
          "countdownValue": 20,
          "name": "half pistol squats rest 2",
          "prepare": true
        },
        {
          "automatic": false,
          "countdownValue": 20,
          "name": "half pistol squats rest 3",
          "prepare": true
        },
        {
          "automatic": false,
          "countdownValue": 20,
          "name": "half pistol squats rest 4",
          "prepare": true
        },
        {
          "automatic": false,
          "countdownValue": 120,
          "name": "half pistol squats rest 5",
          "prepare": true
        },
        {
          "automatic": false,
          "countdownValue": 20,
          "name": "side leg raises rest 1",
          "prepare": true
        },
        {
          "automatic": false,
          "countdownValue": 20,
          "name": "side leg raises rest 2",
          "prepare": true
        },
        {
          "automatic": false,
          "countdownValue": 20,
          "name": "side leg raises rest 3",
          "prepare": true
        },
        {
          "automatic": false,
          "countdownValue": 120,
          "name": "side leg raises rest 4",
          "prepare": true
        },
        {
          "automatic": false,
          "countdownValue": 20,
          "name": "single leg deadlifts rest 1",
          "prepare": true
        },
        {
          "automatic": false,
          "countdownValue": 20,
          "name": "single leg deadlifts rest 2",
          "prepare": true
        },
        {
          "automatic": false,
          "countdownValue": 20,
          "name": "single leg deadlifts rest 3",
          "prepare": true
        }
      ],
      "tools": 0,
      "type": 0,
      "url": ""
    },
    {
      "defAutomatic": false,
      "defPrepare": true,
      "description": "",
      "difficulty": 0,
      "ec": "",
      "focus": 0,
      "initPrep": false,
      "map": "",
      "name": "Strength Protocol - Day 27",
      "pdf": "",
      "sets": 1,
      "timers": [
        {
          "automatic": false,
          "countdownValue": 20,
          "name": "pistol squats rest 1",
          "prepare": true
        },
        {
          "automatic": false,
          "countdownValue": 20,
          "name": "pistol squats rest 2",
          "prepare": true
        },
        {
          "automatic": false,
          "countdownValue": 20,
          "name": "pistol squats rest 3",
          "prepare": true
        },
        {
          "automatic": false,
          "countdownValue": 20,
          "name": "pistol squats rest 4",
          "prepare": true
        },
        {
          "automatic": false,
          "countdownValue": 120,
          "name": "pistol squats rest 5",
          "prepare": true
        },
        {
          "automatic": false,
          "countdownValue": 20,
          "name": "cossack squats rest 1",
          "prepare": true
        },
        {
          "automatic": false,
          "countdownValue": 20,
          "name": "cossack squats rest 2",
          "prepare": true
        },
        {
          "automatic": false,
          "countdownValue": 20,
          "name": "cossack squats rest 3",
          "prepare": true
        },
        {
          "automatic": false,
          "countdownValue": 20,
          "name": "cossack squats rest 4",
          "prepare": true
        },
        {
          "automatic": false,
          "countdownValue": 120,
          "name": "cossack squats rest 5",
          "prepare": true
        },
        {
          "automatic": false,
          "countdownValue": 20,
          "name": "single leg deadlifts rest 1",
          "prepare": true
        },
        {
          "automatic": false,
          "countdownValue": 20,
          "name": "single leg deadlifts rest 2",
          "prepare": true
        },
        {
          "automatic": false,
          "countdownValue": 20,
          "name": "single leg deadlifts rest 3",
          "prepare": true
        },
        {
          "automatic": false,
          "countdownValue": 20,
          "name": "single leg deadlifts rest 4",
          "prepare": true
        },
        {
          "automatic": false,
          "countdownValue": 105,
          "name": "single leg deadlifts rest 5",
          "prepare": false
        },
        {
          "automatic": true,
          "countdownValue": 15,
          "name": "get ready for single leg wall sit",
          "prepare": false
        },
        {
          "automatic": true,
          "countdownValue": 90,
          "name": "single leg wall sit - side 1",
          "prepare": false
        },
        {
          "automatic": true,
          "countdownValue": 90,
          "name": "single leg wall sit - side 2",
          "prepare": false
        }
      ],
      "tools": 0,
      "type": 0,
      "url": ""
    },
    {
      "defAutomatic": false,
      "defPrepare": false,
      "description": "",
      "difficulty": 0,
      "ec": "",
      "focus": 0,
      "initPrep": false,
      "map": "",
      "name": "Stomach Vacuums",
      "pdf": "",
      "sets": 1,
      "timers": [
        {
          "automatic": false,
          "countdownValue": 120,
          "name": "hold",
          "prepare": false
        },
        {
          "automatic": true,
          "countdownValue": 60,
          "name": "rest",
          "prepare": true
        },
        {
          "automatic": false,
          "countdownValue": 120,
          "name": "hold",
          "prepare": false
        },
        {
          "automatic": true,
          "countdownValue": 60,
          "name": "rest",
          "prepare": true
        },
        {
          "automatic": false,
          "countdownValue": 120,
          "name": "hold",
          "prepare": false
        }
      ],
      "tools": 0,
      "type": 0,
      "url": ""
    },
    {
      "defAutomatic": false,
      "defPrepare": true,
      "description": "",
      "difficulty": 0,
      "ec": "",
      "focus": 0,
      "initPrep": false,
      "map": "",
      "name": "The Kitten",
      "pdf": "",
      "sets": 4,
      "timers": [
        {
          "automatic": false,
          "countdownValue": 30,
          "name": "straight hang rest 1",
          "prepare": true
        },
        {
          "automatic": false,
          "countdownValue": 30,
          "name": "straight hang rest 2",
          "prepare": true
        },
        {
          "automatic": false,
          "countdownValue": 30,
          "name": "straight hang rest 3",
          "prepare": true
        },
        {
          "automatic": false,
          "countdownValue": 120,
          "name": "straight hang rest 4",
          "prepare": true
        },
        {
          "automatic": false,
          "countdownValue": 30,
          "name": "one arm hang rest 1",
          "prepare": true
        },
        {
          "automatic": false,
          "countdownValue": 120,
          "name": "one arm hang rest 2",
          "prepare": true
        },
        {
          "automatic": false,
          "countdownValue": 30,
          "name": "chin-up hang rest 1",
          "prepare": true
        },
        {
          "automatic": false,
          "countdownValue": 30,
          "name": "chin-up hang rest 2",
          "prepare": true
        },
        {
          "automatic": false,
          "countdownValue": 30,
          "name": "chin-up hang rest 3",
          "prepare": true
        },
        {
          "automatic": false,
          "countdownValue": 120,
          "name": "chin-up hang rest 4",
          "prepare": true
        },
        {
          "automatic": false,
          "countdownValue": 30,
          "name": "leg raises rest 1",
          "prepare": true
        },
        {
          "automatic": false,
          "countdownValue": 30,
          "name": "leg raises rest 2",
          "prepare": true
        },
        {
          "automatic": false,
          "countdownValue": 30,
          "name": "leg raises rest 3",
          "prepare": true
        }
      ],
      "tools": 0,
      "type": 0,
      "url": ""
    },
    {
      "defAutomatic": false,
      "defPrepare": true,
      "description": "",
      "difficulty": 0,
      "ec": "",
      "focus": 0,
      "initPrep": false,
      "map": "",
      "name": "The Kitten + EC",
      "pdf": "",
      "sets": 4,
      "timers": [
        {
          "automatic": false,
          "countdownValue": 30,
          "name": "straight hang rest 1",
          "prepare": true
        },
        {
          "automatic": false,
          "countdownValue": 30,
          "name": "straight hang rest 2",
          "prepare": true
        },
        {
          "automatic": false,
          "countdownValue": 30,
          "name": "straight hang rest 3",
          "prepare": true
        },
        {
          "automatic": false,
          "countdownValue": 60,
          "name": "straight hang rest 4",
          "prepare": true
        },
        {
          "automatic": false,
          "countdownValue": 30,
          "name": "one arm hang rest 1",
          "prepare": true
        },
        {
          "automatic": false,
          "countdownValue": 60,
          "name": "one arm hang rest 2",
          "prepare": true
        },
        {
          "automatic": false,
          "countdownValue": 30,
          "name": "chin-up hang rest 1",
          "prepare": true
        },
        {
          "automatic": false,
          "countdownValue": 30,
          "name": "chin-up hang rest 2",
          "prepare": true
        },
        {
          "automatic": false,
          "countdownValue": 30,
          "name": "chin-up hang rest 3",
          "prepare": true
        },
        {
          "automatic": false,
          "countdownValue": 60,
          "name": "chin-up hang rest 4",
          "prepare": true
        },
        {
          "automatic": false,
          "countdownValue": 30,
          "name": "leg raises rest 1",
          "prepare": true
        },
        {
          "automatic": false,
          "countdownValue": 30,
          "name": "leg raises rest 2",
          "prepare": true
        },
        {
          "automatic": false,
          "countdownValue": 30,
          "name": "leg raises rest 3",
          "prepare": true
        }
      ],
      "tools": 0,
      "type": 0,
      "url": ""
    },
    {
      "defAutomatic": false,
      "defPrepare": true,
      "description": "",
      "difficulty": 0,
      "ec": "",
      "focus": 0,
      "initPrep": false,
      "map": "",
      "name": "Power Pull",
      "pdf": "",
      "sets": 1,
      "timers": [
        {
          "automatic": false,
          "countdownValue": 60,
          "name": "pull-ups rest 1",
          "prepare": true
        },
        {
          "automatic": false,
          "countdownValue": 60,
          "name": "pull-ups rest 2",
          "prepare": true
        },
        {
          "automatic": false,
          "countdownValue": 60,
          "name": "pull-ups rest 3",
          "prepare": true
        },
        {
          "automatic": false,
          "countdownValue": 60,
          "name": "hanging knees raises rest",
          "prepare": true
        },
        {
          "automatic": false,
          "countdownValue": 60,
          "name": "hanging legs raises rest",
          "prepare": true
        }
      ],
      "tools": 0,
      "type": 0,
      "url": ""
    },
    {
      "defAutomatic": false,
      "defPrepare": true,
      "description": "",
      "difficulty": 0,
      "ec": "",
      "focus": 0,
      "initPrep": false,
      "map": "",
      "name": "4x4",
      "pdf": "",
      "sets": 4,
      "timers": [
        {
          "automatic": false,
          "countdownValue": 120,
          "name": "rest 1",
          "prepare": true
        },
        {
          "automatic": false,
          "countdownValue": 120,
          "name": "rest 2",
          "prepare": true
        },
        {
          "automatic": false,
          "countdownValue": 120,
          "name": "rest 3",
          "prepare": true
        },
        {
          "automatic": false,
          "countdownValue": 120,
          "name": "rest 4",
          "prepare": true
        }
      ],
      "tools": 0,
      "type": 0,
      "url": ""
    },
    {
      "defAutomatic": false,
      "defPrepare": true,
      "description": "",
      "difficulty": 0,
      "ec": "",
      "focus": 0,
      "initPrep": false,
      "map": "",
      "name": "4x4 + EC",
      "pdf": "",
      "sets": 4,
      "timers": [
        {
          "automatic": false,
          "countdownValue": 60,
          "name": "rest 1",
          "prepare": true
        },
        {
          "automatic": false,
          "countdownValue": 60,
          "name": "rest 2",
          "prepare": true
        },
        {
          "automatic": false,
          "countdownValue": 60,
          "name": "rest 3",
          "prepare": true
        },
        {
          "automatic": false,
          "countdownValue": 60,
          "name": "rest 4",
          "prepare": true
        }
      ],
      "tools": 0,
      "type": 0,
      "url": ""
    },
    {
      "defAutomatic": true,
      "defPrepare": false,
      "description": "",
      "difficulty": 0,
      "ec": "",
      "focus": 7,
      "initPrep": true,
      "map": "",
      "name": "Nickels & Dimes - L3",
      "pdf": "",
      "sets": 15,
      "timers": [
        {
          "automatic": true,
          "countdownValue": 120,
          "name": "Set",
          "prepare": false
        }
      ],
      "tools": 0,
      "type": 10,
      "url": ""
    }
  ]
}
